{
  "lerna": "0.0.4",
  "packages": ["packages/*"],
  "command": {
    "publish": {
      "allowBranch": "master",
      "conventionalCommits": true,
      "message": "chore(release): publish."
    }
  },
  "version": "independent",
  "independent": true
}
